{
  "$schema": "http://schema.management.azure.com/schemas/2015-01-01/deploymentTemplate.json#",
  "contentVersion": "2.0.1.0",
  "parameters": {
    "location": {
      "type": "string",
      "defaultValue": "ukwest",
      "allowedValues": [
        "ukwest",
        "uksouth"
      ],
      "metadata": {
        "description": "Location to store the resource group and all vm's."
      }
    },
    "virtualMachineName": {
      "type": "string",
      "maxLength": 10,
      "metadata": {
        "description": "Virtual Machine name e.g. 306Client."
      }
    },
    "virtualMachineCount": {
        "type": "int",
        "metadata": {
          "decription": "Number of Virtual Machines required e.g. 5"
        }
    },
    "createdBy":{
      "type": "string",
      "metadata": {
        "description": "Please enter your name"
      }
    },
    "trainerInitials": {
      "type": "string",
      "minLength": 2,
      "metadata": {
        "description": "Trainer initials used to create a unique resource group."
      }
    },
    "osDiskType": {
      "type": "string",
      "defaultValue": "Standard_LRS",
      "allowedValues": [
        "Standard_LRS"
      ],
      "metadata": {
        "description": "Type of storage Standard HDD, SSD or Premium."
      }
    },
    "virtualMachineSize": {
      "type": "string",
      "defaultValue": "Standard_D2s_v3",
      "allowedValues": [
        "Standard_D2_v3",
        "Standard_D2s_v3",
        "Standard_DS3_v2"
      ],
      "metadata": {
        "description": "Virtual Machine size."
      }
    },
    "platform": {
        "type": "string",
        "allowedValues": [
            "Windows",
            "Linux"
        ],
        "metadata": {
          "description": "Select the OS type to deploy"
        }
    },
    "operatingSystem": {
      "type": "string",
      "allowedValues": [
        "Windows10Pro",
        "Server2012R2",
        "Server2016",
        "Ubuntu"
      ],
      "metadata": {
        "description": "Choose your operating system."
      }
    },
    "virtualMachineAdminUsername": {
      "type": "string",
      "metadata": {
        "description": "Admin username for the Virtual Machine."
      }
    },
    "authenticationType": {
      "type": "string",
      "defaultValue": "Password",
      "allowedValues": [
          "Password",
          "sshPublicKey"
      ],
      "metadata": {
        "descriptopn": "The type of authentication used on the virtual machine. SSH is recommended for Linux VMs"
      }
  },
    "virtualMachineAdminPasswordOrSsh": {
      "type": "securestring",
      "metadata": {
        "description": "Admin password for the Virtual Machine. If Linux SSH is recommended."
      }
    }      
  },
  "variables": {
    "networkSecurityGroupName": "[concat(resourceGroup().name, '-nsg')]",
    "vmNamePrefix": "[toUpper(concat(parameters('virtualMachineName'), parameters('trainerInitials')))]",
    "virtualNetworkName": "[concat(resourceGroup().name, '-vnet')]",
    "addressPrefixes": "10.0.0.0/16",
    "subnetsAddressPrefix": "10.0.0.0/24",
    "subnetName": "Default",
    "nsgId": "[resourceId(resourceGroup().name, 'Microsoft.Network/networkSecurityGroups', variables('networkSecurityGroupName'))]",
    "vnetId": "[resourceId(resourceGroup().name,'Microsoft.Network/virtualNetworks', variables('virtualNetworkName'))]",
    "subnetRef": "[concat(variables('vnetId'), '/subnets/', variables('subnetName'))]",
    "operatingSystemValues": {
      "Windows10Pro": {
        "publisherValue": "MicrosoftWindowsDesktop",
        "offerValue": "Windows-10",
        "skuValue": "rs5-pro"
      },
      "Server2012R2": {
        "publisherValue": "MicrosoftWindowsServer",
        "offerValue": "WindowsServer",
        "skuValue": "2012-R2-Datacenter"
      },
      "Server2016": {
        "publisherValue": "MicrosoftWindowsServer",
        "offerValue": "WindowsServer",
        "skuValue": "2016-Datacenter"
      },
      "Ubuntu": {
          "publisherValue": "Canonical",
          "offerValue": "UbuntuServer",
          "skuValue": "18.04-LTS"
      }
  },
  "windowsConfiguration": {
      "enableAutomaticUpdates": true,
      "provisionVMAgent": true,
      "timeZone": "GMT Standard Time"
  },
  "windowsLicense": "Windows_Client",
  "linuxConfiguration": {
      "disablePasswordAuthentication": true,
      "ssh": {
          "publicKeys": [
              {
                  "path": "[concat('/home/', parameters('virtualMachineAdminUsername'), '/.ssh/authorized_keys')]",
                  "keyData": "[parameters('virtualMachineAdminPasswordOrSsh')]"
              }
          ]
      }
  },
  "allowRDP":{
    "securityRules": [
      {
        "name": "Allow-RDP",
        "properties": {
          "priority": 300,
          "protocol": "Tcp",
          "access": "Allow",
          "direction": "Inbound",
          "sourceAddressPrefix": "*",
          "sourcePortRange": "*",
          "destinationAddressPrefix": "*",
          "destinationPortRange": "3389"
        }
      }
    ]
  },
  "allowSSH": {
    "securityRules": [
      {
        "name": "Allow-SSH",
        "properties": {
          "priority": 310,
          "protocol": "Tcp",
          "access": "Allow",
          "direction": "Inbound",
          "sourceAddressPrefix": "*",
          "sourcePortRange": "*",
          "destinationAddressPrefix": "*",
          "destinationPortRange": "22"
        }
      }
    ]
  },
    "_artifactsLocation": "https://raw.githubusercontent.com/cnomadl/Azure-Extensions/master/"
  },
  "resources": [
    {
      "apiVersion": "2018-10-01",
      "type": "Microsoft.Network/networkInterfaces",
      "name": "[concat(variables('vmNamePrefix'), copyIndex(1), '-nic')]",     
      "location": "[parameters('location')]",
      "tags": {
        "DisplayName": "NetworkInterface",
        "Enviroment" : "[resourceGroup().tags['Enviroment']]",
        "Dept" : "[resourceGroup().tags['Dept']]",
        "Created By" : "[parameters('createdBy')]"
      },
      "copy": {
          "name": "nicLoop",
          "count": "[parameters('virtualMachineCount')]"
      },
      "dependsOn": [
        "[concat('Microsoft.Network/networkSecurityGroups/', variables('networkSecurityGroupName'))]",
        "[concat('Microsoft.Network/virtualNetworks/', variables('virtualNetworkName'))]",
        "[concat('Microsoft.Network/publicIpAddresses/', variables('vmNamePrefix'), copyindex(1), '-ip')]"
      ],
      "properties": {
        "ipConfigurations": [
          {
            "name": "ipconfig1",
            "properties": {
              "subnet": {
                "id": "[variables('subnetRef')]"
              },
              "privateIPAllocationMethod": "Dynamic",
              "publicIpAddress": {
                "id": "[resourceId(resourceGroup().name, 'Microsoft.Network/publicIpAddresses', concat(variables('vmNamePrefix'), copyIndex(1), '-ip'))]"
              }
            }
          }
        ],
        "networkSecurityGroup": {
          "id": "[variables('nsgId')]"
        }
      }
    },
    {
      "apiVersion": "2019-02-01",
      "type": "Microsoft.Network/networkSecurityGroups",
      "name": "[variables('networkSecurityGroupName')]",      
      "location": "[parameters('location')]",
      "tags": {
        "DisplayName": "NetworkSecurityGroup",
        "Enviroment" : "[resourceGroup().tags['Enviroment']]",
        "Dept" : "[resourceGroup().tags['Dept']]",
        "Created By" : "[parameters('createdBy')]"
      },
      "properties": "[if(equals(parameters('platform'), 'Windows'), variables('allowRDP'), variables('allowSSH'))]"
    },
    {
      "apiVersion": "2019-04-01",
      "type": "Microsoft.Network/virtualNetworks",
      "name": "[variables('virtualNetworkName')]",      
      "location": "[parameters('location')]",
      "tags": {
        "DisplayName": "VirtualNetwork",
        "Enviroment" : "[resourceGroup().tags['Enviroment']]",
        "Dept" : "[resourceGroup().tags['Dept']]",
        "Created By" : "[parameters('createdBy')]"
      },
      "properties": {
        "addressSpace": {
          "addressPrefixes": [
            "[variables('addressPrefixes')]"
          ]
        },
        "subnets": [
          {
            "name": "[variables('subnetName')]",
            "properties": {
              "addressPrefix": "[variables('subnetsAddressPrefix')]"
            }
          }
        ]
      }
    },
    {
      "apiVersion": "2019-02-01",
      "type": "Microsoft.Network/publicIPAddresses",
      "name": "[concat(variables('vmNamePrefix'), copyIndex(1), '-ip')]",      
      "location": "[parameters('location')]",
      "tags": {
        "DisplayName": "PublicIPAddress",
        "Enviroment" : "[resourceGroup().tags['Enviroment']]",
        "Dept" : "[resourceGroup().tags['Dept']]",
        "Created By" : "[parameters('createdBy')]"
      },
      "copy": {
          "name": "publicIpNameLoop",
          "count": "[parameters('virtualMachineCount')]"
      },
      "properties": {
        "publicIPAllocationMethod": "Dynamic",
        "dnsSettings": {
          "domainNameLabel": "[toLower(concat('baltic-', variables('vmNamePrefix'), copyindex(1)))]"
        }
      },
      "sku": {
        "name": "Basic"
      }
    },
    { 
      "apiVersion": "2018-10-01",
      "type": "Microsoft.Compute/virtualMachines",
      "name": "[concat(variables('vmNamePrefix'), copyindex(1))]",      
      "location": "[parameters('location')]",
      "tags": {
        "DisplayName": "VirtualMachine",
        "Enviroment" : "[resourceGroup().tags['Enviroment']]",
        "Dept" : "[resourceGroup().tags['Dept']]",
        "Created By" : "[parameters('createdBy')]"
      },
      "copy": {
          "name": "virtualMachineLoop",
          "count": "[parameters('virtualMachineCount')]"
      },
      "dependsOn": [
        "[concat('Microsoft.Network/networkInterfaces/', variables('vmNamePrefix'), copyindex(1), '-nic')]"
      ],
      "properties": {
        "hardwareProfile": {
          "vmSize": "[parameters('virtualMachineSize')]"
        },
        "storageProfile": {
          "osDisk": {
            "name": "[concat(variables('vmNamePrefix'), copyIndex(1), '-osdisk')]",
            "createOption": "FromImage",
            "managedDisk": {
              "storageAccountType": "[parameters('osDiskType')]"
            }
          },
          "imageReference": {
              "publisher": "[variables('operatingSystemValues')[parameters('operatingSystem')].publisherValue]",
              "offer": "[variables('operatingSystemValues')[parameters('operatingSystem')].offerValue]",
              "sku": "[variables('operatingSystemValues')[parameters('operatingSystem')].skuValue]",              
            "version": "latest"
          }
        },
        "networkProfile": {
          "networkInterfaces": [
            {
              "id": "[resourceId('Microsoft.Network/networkInterfaces', concat(variables('vmNamePrefix'), copyIndex(1), '-nic'))]"
            }
          ]
        },
        "osProfile": {
          "computerName": "[concat(variables('vmNamePrefix'), copyIndex(1))]",
          "adminUsername": "[parameters('virtualMachineAdminUsername')]",
          "adminPassword": "[if(equals(parameters('authenticationType'), 'Password'), parameters('virtualMachineAdminPasswordOrSsh'), json('null'))]",
          "linuxConfiguration": "[if(equals(parameters('authenticationType'), 'Password'), json('null'), variables('linuxConfiguration'))]",
          "windowsConfiguration": "[if(equals(parameters('platform'), 'Windows'), variables('windowsConfiguration'), json('null'))]"
        },
        "licenseType": "[if(equals(parameters('operatingSystem'), 'Windows10Pro'), variables('windowsLicense'), json('null'))]",
        "diagnosticsProfile": {
          "bootDiagnostics": {
            "enabled": false
          }
        }
      },
      "resources": [
        {
          "condition": "[equals(parameters('platform'), 'Windows')]",
          "comments": "Custom Script that changes the region of the VM to UK",
          "apiVersion": "2018-10-01",
          "type": "extensions",
          "name": "[concat(variables('vmNamePrefix'), copyIndex(1), 'CustomScriptExtension')]",
          "location": "[parameters('location')]",
          "dependsOn": [
            "[concat('Microsoft.Compute/virtualMachines/', variables('vmNamePrefix'), copyIndex(1))]"
          ],
          "properties": {
            "publisher": "Microsoft.Compute",
            "type": "CustomScriptExtension",
            "autoUpgradeMinorVersion": true,
            "typeHandlerVersion": "1.4",
            "settings": {
              "fileUris": [
                "[concat(variables('_artifactsLocation'), '/regionalSettings.ps1')]"
              ]
            },
            "protectedSettings": {
              "commandToExecute": "powershell.exe -ExecutionPolicy Unrestricted -File regionalSettings.ps1"
            }
          }
        }
      ]
    },          
    {
      "apiVersion": "2017-04-26-preview",
      "type": "Microsoft.DevTestLab/schedules",
      "name": "[concat('shutdown-computevm-', variables('vmNamePrefix'),  copyIndex(1))]",      
      "location": "[parameters('location')]",
      "tags": {
        "DisplayName": "ShutdownSchedule",
        "Enviroment" : "[resourceGroup().tags['Enviroment']]",
        "Dept" : "[resourceGroup().tags['Dept']]",
        "Created By" : "[parameters('createdBy')]"
      },
      "copy": {
          "name": "shutdownLoop",
          "count": "[parameters('virtualMachineCount')]"
      },
      "dependsOn": [
        "[concat('Microsoft.Compute/virtualMachines/', variables('vmNamePrefix'), copyIndex(1))]"
      ],
      "properties": {
        "status": "Enabled",
        "taskType": "ComputeVmShutdownTask",
        "dailyRecurrence": {
          "time": "17:00"
        },
        "timeZoneId": "GMT Standard Time",
        "targetResourceId": "[resourceId('Microsoft.Compute/virtualMachines', concat(variables('vmNamePrefix'), copyIndex(1)))]",
        "notificationSettings": {
          "status": "Disabled",
          "notificationLocale": "en",
          "timeInMinutes": "30"
        }
      }
    }
  ],
  "outputs": {
    "VirtualMachineDomain":{
      "type": "string",
      "value": ""
    }
  }
}